# Blender MTL File: 'shelf.blend'
# Material Count: 2

newmtl Material.001
Ns 225.000000
Ka 1.000000 1.000000 1.000000
Kd 0.051223 0.384375 0.024794
Ks 0.500000 0.500000 0.500000
Ke 0.000000 0.000000 0.000000
Ni 1.450000
d 1.000000
illum 2

newmtl Material.002
Ns 225.000000
Ka 1.000000 1.000000 1.000000
Kd 0.069978 0.069978 0.069978
Ks 0.500000 0.500000 0.500000
Ke 0.000000 0.000000 0.000000
Ni 1.450000
d 1.000000
illum 2
